{
    "_links": {
        "self": {
            "href": "http:\/\/default\/events\/past-event-content-sample?_format=hal_json"
        },
        "type": {
            "href": "http:\/\/drupal.org\/rest\/type\/node\/event"
        },
        "http:\/\/drupal.org\/rest\/relation\/node\/event\/revision_uid": [
            {
                "href": "http:\/\/default\/user\/1?_format=hal_json"
            }
        ],
        "http:\/\/drupal.org\/rest\/relation\/node\/event\/uid": [
            {
                "href": "http:\/\/default\/user\/1?_format=hal_json",
                "lang": "en"
            }
        ],
        "http:\/\/drupal.org\/rest\/relation\/node\/event\/field_event_category": [
            {
                "href": "http:\/\/default\/taxonomy\/term\/27?_format=hal_json"
            }
        ],
        "http:\/\/drupal.org\/rest\/relation\/node\/event\/field_related_files": [
            {
                "href": "http:\/\/default\/file\/sample-file-pdf?_format=hal_json",
                "lang": "en"
            }
        ]
    },
    "nid": [
        {
        }
    ],
    "uuid": [
        {
            "value": "f8feaf24-ea4a-40bb-a217-656e8a0af3d3"
        }
    ],
    "vid": [
        {
        }
    ],
    "langcode": [
        {
            "value": "en",
            "lang": "en"
        }
    ],
    "type": [
        {
            "target_id": "event"
        }
    ],
    "revision_timestamp": [
        {
            "value": "2018-08-29T22:12:22+00:00",
            "format": "Y-m-d\\TH:i:sP"
        }
    ],
    "_embedded": {
        "http:\/\/drupal.org\/rest\/relation\/node\/event\/revision_uid": [
            {
                "_links": {
                    "self": {
                        "href": "http:\/\/default\/user\/1?_format=hal_json"
                    },
                    "type": {
                        "href": "http:\/\/drupal.org\/rest\/type\/user\/user"
                    }
                },
                "uuid": [
                    {
                        "value": "d0336305-8ae4-4e40-96a0-ff4eb7520b8f"
                    }
                ]
            }
        ],
        "http:\/\/drupal.org\/rest\/relation\/node\/event\/uid": [
            {
                "_links": {
                    "self": {
                        "href": "http:\/\/default\/user\/1?_format=hal_json"
                    },
                    "type": {
                        "href": "http:\/\/drupal.org\/rest\/type\/user\/user"
                    }
                },
                "uuid": [
                    {
                        "value": "d0336305-8ae4-4e40-96a0-ff4eb7520b8f"
                    }
                ],
                "lang": "en"
            }
        ],
        "http:\/\/drupal.org\/rest\/relation\/node\/event\/field_event_category": [
            {
                "_links": {
                    "self": {
                        "href": "http:\/\/default\/taxonomy\/term\/27?_format=hal_json"
                    },
                    "type": {
                        "href": "http:\/\/drupal.org\/rest\/type\/taxonomy_term\/event_category"
                    }
                },
                "uuid": [
                    {
                        "value": "386e6686-067f-4fe5-ac59-5bbbb95471b7"
                    }
                ]
            }
        ],
        "http:\/\/drupal.org\/rest\/relation\/node\/event\/field_related_files": [
            {
                "_links": {
                    "self": {
                        "href": "http:\/\/default\/file\/sample-file-pdf?_format=hal_json"
                    },
                    "type": {
                        "href": "http:\/\/drupal.org\/rest\/type\/media\/file"
                    }
                },
                "uuid": [
                    {
                        "value": "84cd5448-d4db-4887-b41c-95838b9a357c"
                    }
                ],
                "lang": "en"
            }
        ]
    },
    "status": [
        {
            "value": true,
            "lang": "en"
        }
    ],
    "title": [
        {
            "value": "Past event content sample",
            "lang": "en"
        }
    ],
    "created": [
        {
            "value": "2018-08-14T22:30:09+00:00",
            "lang": "en",
            "format": "Y-m-d\\TH:i:sP"
        }
    ],
    "changed": [
        {
            "value": "2018-08-29T22:12:22+00:00",
            "lang": "en",
            "format": "Y-m-d\\TH:i:sP"
        }
    ],
    "promote": [
        {
            "value": false,
            "lang": "en"
        }
    ],
    "sticky": [
        {
            "value": false,
            "lang": "en"
        }
    ],
    "default_langcode": [
        {
            "value": true,
            "lang": "en"
        }
    ],
    "revision_translation_affected": [
        {
            "value": true,
            "lang": "en"
        }
    ],
    "metatag": [
        {
            "value": {
                "title": "Past event content sample | Base2",
                "description": "The Events\u00a0Content type is another example for taxonomy (or data) driven content. Events and News items have similar fieldsets and displays; however their data type\u00a0is different."
            }
        }
    ],
    "path": [
        {
            "alias": "\/events\/past-event-content-sample",
            "pid": 26,
            "langcode": "en",
            "lang": "en"
        }
    ],
    "rh_action": [
        {
            "value": "bundle_default"
        }
    ],
    "rh_redirect_response": [
        {
            "value": 301
        }
    ],
    "body": [
        {
            "value": "<p class=\"lead\">The Events&nbsp;Content type is another example for taxonomy (or data) driven content. Events and News items have similar fieldsets and displays; however their data type&nbsp;is different. Like&nbsp;News, Events are transient (content becomes less relevant over time), but they have a start and an end date, as well as a location.<\/p>\r\n\r\n<p>You can use the Event content type to list future events, as well as to provide resources like written documentation and slideshows for past events.<\/p>\r\n\r\n<div aria-label=\"Information\" class=\"note note--primary\" role=\"note\">\r\n<p>This sample node is a node of the content type&nbsp;<em>Event<\/em>.<\/p>\r\n<\/div>\r\n\r\n<p>{Sample content}<\/p>\r\n",
            "format": "basic_html",
            "processed": "<p class=\"lead\">The Events\u00a0Content type is another example for taxonomy (or data) driven content. Events and News items have similar fieldsets and displays; however their data type\u00a0is different. Like\u00a0News, Events are transient (content becomes less relevant over time), but they have a start and an end date, as well as a location.<\/p>\n\n<p>You can use the Event content type to list future events, as well as to provide resources like written documentation and slideshows for past events.<\/p>\n\n<div aria-label=\"Information\" class=\"note note--primary\" role=\"note\">\n<p>This sample node is a node of the content type\u00a0<em>Event<\/em>.<\/p>\n<\/div>\n\n<p>{Sample content}<\/p>",
            "summary": ""
        }
    ],
    "field_event_date": [
        {
            "value": "2016-09-01T14:00:00Z",
            "end_value": "2016-09-02T14:00:00Z"
        }
    ],
    "field_last_updated": [
        {
            "value": "2018-08-14",
            "lang": "en"
        }
    ],
    "field_related_links": [
        {
            "uri": "https:\/\/www.sector.org.nz\/documentation\/sector-event-content-type",
            "title": "Sector Event content type documentation ",
            "options": [],
            "lang": "en"
        }
    ]
}
